{
    "data": [
        {
            "id": 1,
            "title": "Оплатить счета по квартплате",
            "factDueDate": "1642453665",
            "description": "Газ, свет, вывоз мусора и тд."
        },
        {
            "id": 2,
            "title": "Заехать за продуктами",
            "factDueDate": "1641394278",
            "description": "Хлеб, молоко, чай, печеньки"
        },
        {
            "id": 3,
            "title": "Придумать че нибудь",
            "factDueDate": "1642986746",
            "description": "Придумать какую нибудь хрень"
        },
        {
            "id": 4,
            "title": "Зайти в библиотеку",
            "factDueDate": "1643409177",
            "description": "Взять что нибудь из Пушкина"
        },
        {
            "id": 5,
            "title": "Сходить к стоматологу",
            "factDueDate": "1642983136",
            "description": "Починить зубы, а то болят"
        },
        {
            "id": 6,
            "title": "Отвезти кота в ветеренарку",
            "factDueDate": "1643501100",
            "description": "Че то с хвостом, надо проверить"
        },
        {
            "id": 7,
            "title": "Сходить в спортзал",
            "factDueDate": "1641170705",
            "description": "А может и не сходить"
        },
        {
            "id": 8,
            "title": "Посмотреть кино",
            "factDueDate": "1641354373",
            "description": "Пересмотреть Гарри Поттера"
        },
        {
            "id": 9,
            "title": "Вечерняя пробежка",
            "factDueDate": "1642023477",
            "description": "Или утрення"
        },
        {
            "id": 10,
            "title": "Сходить в клуб на вечеринку",
            "factDueDate": "1641241103",
            "description": "Приезжает Армин, надо обязательно сходить"
        },
        {
            "id": 11,
            "title": "Заполнить отчет",
            "factDueDate": "1643084473",
            "description": "Заполнить дурацкую Джиру"
        },
        {
            "id": 12,
            "title": "Вызвать сантехника",
            "factDueDate": "1641665017",
            "description": "Чет кран течёт"
        },
        {
            "id": 13,
            "title": "Починить компьютер",
            "factDueDate": "1643116122",
            "description": "Починить компьютер криворукой сестры"
        },
        {
            "id": 14,
            "title": "Поиграть в доту",
            "factDueDate": "1641587798",
            "description": "Катку в дотку и спать"
        },
        {
            "id": 15,
            "title": "Набухаться",
            "factDueDate": "1641587798",
            "description": "Утром выпил, день свободен"
        },
        {
            "id": 16,
            "title": "Убраться дома",
            "factDueDate": "1641419500",
            "description": "Вытереть пыль, включить робот пылесос, что бы котам не скучно было"
        },
        {
            "id": 17,
            "title": "Посчитать расходы за месяц",
            "factDueDate": "1642383866",
            "description": "Дебет/Кредит, все дела"
        },
        {
            "id": 18,
            "title": "Поставить будильник",
            "factDueDate": "1641227670",
            "description": "Не проспать мусорку в субботу"
        },
        {
            "id": 19,
            "title": "Не забыть выключить утюг",
            "factDueDate": "1642737596",
            "description": "Просто не забыть"
        },
        {
            "id": 20,
            "title": "Поймать соседского кота и кастрировать",
            "factDueDate": "1642199586",
            "description": "Поймать эту падлу"
        }
    ]
}